Fail:                ...
Fail:  10706240291603714 | 00260944D1760502
Pass:   9469010147431344 | 0021A403BA3653B0
Pass:                ...
Pass:   1017297123971343 | 00039D39F1B4910F
????:                ...
Pass:    -31160140884154 | FFFFE3A8F6DF1746
Pass:                ...
Pass:  -8292271207831449 | FFE28A392846A867
Fail: -10253427413588223 | FFDB928FE5486701
Fail:                ...

 Biggest positive PASS:  9730772296405025 - 00229215FA1E1021 - 0000 0000 0010 0010 1001 0010 0001 0101 1111 1010 0001 1110 0001 0000 0010 0001
Smallest negative PASS: -9730772296405025 - FFDD6DEA05E1EFA7 - 1111 1111 1101 1101 0110 1101 1110 1010 0000 0101 1110 0001 1110 1111 1010 0111

----------------------------------------------------------------------------------------------------------------------------------------------

                         9007199254740991 - 001FFFFFFFFFFFFF -              1 1111 1111 1111 1111 1111 1111 1111 1111 1111 1111 1111 1111 1111
                        -9007199254740992 - 0020000000000000 -             10 0000 0000 0000 0000 0000 0000 0000 0000 0000 0000 0000 0000 0000
                         